{
  "content": [
    {
      "id": "5e42ae8d-b887-4c27-b092-66212d89d4a8",
      "firstName": "Camille",
      "lastName": "Noel",
      "avatarUrl": null,
      "email": "camille@coolcompany.com",
      "notify": false,
      "department": "People Operations"
    },
    {
      "id": "0723b0ac-908c-4f1b-b5a0-31b76486c3bf",
      "firstName": "Niccole",
      "lastName": "Jones",
      "avatarUrl": null,
      "email": "niccole@coolcompany.com",
      "notify": false,
      "department": "Product"
    },
    {
      "id": "2c362a1e-3bf9-4f62-ae63-b629db2c80d1",
      "firstName": "Michael",
      "lastName": "Jones",
      "avatarUrl": null,
      "email": "michael@coolcompany.com",
      "notify": false,
      "department": "Product"
    },
    {
      "id": "3d478c3e-5160-4b71-97d2-e65da46909dc",
      "firstName": "Chandler",
      "lastName": "Jones",
      "avatarUrl": null,
      "email": "chandler@coolcompany.com",
      "notify": false,
      "department": "Product"
    },
    {
      "id": "3e4d66ef-58d7-4e63-8792-5406c6cff28e",
      "firstName": "Jason",
      "lastName": "Jones",
      "avatarUrl": null,
      "email": "jason@coolcompany.com",
      "notify": false,
      "department": "Product"
    },
    {
      "id": "5fbb8a09-d735-452b-9ddb-a5d101984c80",
      "firstName": "Allison",
      "lastName": "Jones",
      "avatarUrl": null,
      "email": "allison@coolcompany.com",
      "notify": false,
      "department": "Product"
    },
    {
      "id": "61605e1a-d57e-4011-9002-44df972c8fec",
      "firstName": "Daniel",
      "lastName": "Jones",
      "avatarUrl": null,
      "email": "danno@coolcompany.com",
      "notify": false,
      "department": "Product"
    },
    {
      "id": "73fc13eb-22f1-4b9a-bb0e-8df6d13b446b",
      "firstName": "Malcolm",
      "lastName": "Johnson",
      "avatarUrl": null,
      "email": "malcolm@coolcompany.com",
      "notify": false,
      "department": "Product"
    },
    {
      "id": "83fa0af4-c7b9-46db-9948-a2c586395a77",
      "firstName": "Jason",
      "lastName": "Johnson",
      "avatarUrl": null,
      "email": "jason@coolcompany.com",
      "notify": false,
      "department": "Product"
    },
    {
      "id": "91a86036-c7e6-44fe-a688-d6d4b44373a3",
      "firstName": "Nicholas",
      "lastName": "Johnson",
      "avatarUrl": null,
      "email": "nick@coolcompany.com",
      "notify": false,
      "department": "Product"
    },
    {
      "id": "a0494b68-617d-4cdb-9aa8-ac25d35056fa",
      "firstName": "Hyejeong",
      "lastName": "Johnson",
      "avatarUrl": null,
      "email": "heather@coolcompany.com",
      "notify": false,
      "department": "Product"
    },
    {
      "id": "a876d077-0ebf-423d-a994-46e96e96fabf",
      "firstName": "Bradley",
      "lastName": "Johnson",
      "avatarUrl": null,
      "email": "brad@coolcompany.com",
      "notify": false,
      "department": "Product"
    },
    {
      "id": "bc685fc6-d70c-48fd-bc1f-e504fb285da6",
      "firstName": "Emma",
      "lastName": "Johnson",
      "avatarUrl": null,
      "email": "emma@coolcompany.com",
      "notify": false,
      "department": "Product"
    },
    {
      "id": "bf31e86b-35ce-465a-8a62-2cb219dca094",
      "firstName": "Austin",
      "lastName": "Johnson",
      "avatarUrl": null,
      "email": "austin@coolcompany.com",
      "notify": false,
      "department": "Product"
    },
    {
      "id": "edd21fcb-d9f0-4315-8ce1-ab04dad7df3c",
      "firstName": "Preston",
      "lastName": "Johnson",
      "avatarUrl": null,
      "email": "preston@coolcompany.com",
      "notify": false,
      "department": "Product"
    },
    {
      "id": "f6b10575-8ec2-43b2-a367-e61c66b40b74",
      "firstName": "Ryan",
      "lastName": "Johnson",
      "avatarUrl": null,
      "email": "ryan@coolcompany.com",
      "notify": false,
      "department": "Product"
    },
    {
      "id": "f6fb21fd-5a0c-4092-b2f8-7a1ec3c00488",
      "firstName": "Patrick",
      "lastName": "Johnson",
      "avatarUrl": null,
      "email": "patrick@coolcompany.com",
      "notify": false,
      "department": "Product"
    },
    {
      "id": "0dcfb43e-51c1-4944-816b-1e83b80fba82",
      "firstName": "Brandon",
      "lastName": "Johnson",
      "avatarUrl": null,
      "email": "brandon@coolcompany.com",
      "notify": false,
      "department": "Customer Success"
    },
    {
      "id": "168d8fe0-3f0f-40d6-887f-9bad0eef56e0",
      "firstName": "Terrance",
      "lastName": "Smith",
      "avatarUrl": null,
      "email": "terrance@coolcompany.com",
      "notify": false,
      "department": "Customer Success"
    },
    {
      "id": "1bc11b4d-3773-461f-bf4c-eb096d2ffd9f",
      "firstName": "Lisa",
      "lastName": "Smith",
      "avatarUrl": null,
      "email": "lisa@coolcompany.com",
      "notify": false,
      "department": "Customer Success"
    }
  ],
  "pageable": {
    "sort": {
      "sorted": false,
      "unsorted": true,
      "empty": true
    },
    "pageSize": 20,
    "pageNumber": 0,
    "offset": 0,
    "unpaged": false,
    "paged": true
  },
  "last": false,
  "totalPages": 6,
  "totalElements": 107,
  "sort": {
    "sorted": false,
    "unsorted": true,
    "empty": true
  },
  "size": 20,
  "number": 0,
  "numberOfElements": 20,
  "first": true,
  "empty": false
}
