{
  "content": [
    {
      "organizerFirstName": "Bob",
      "organizerLastName": "Jones",
      "totalCost": 1,
      "totalSeconds": 5000,
      "totalMeetings": 21
    },
    {
      "organizerFirstName": "Fred",
      "organizerLastName": "Smith",
      "totalCost": 1,
      "totalSeconds": 5000,
      "totalMeetings": 21
    },
    {
      "organizerFirstName": "Steve",
      "organizerLastName": "Jones",
      "totalCost": 1,
      "totalSeconds": 5000,
      "totalMeetings": 21
    },
    {
      "organizerFirstName": "Teddy",
      "organizerLastName": "Jones",
      "totalCost": 1,
      "totalSeconds": 5000,
      "totalMeetings": 21
    },
    {
      "organizerFirstName": "John",
      "organizerLastName": "Jones",
      "totalCost": 1,
      "totalSeconds": 5000,
      "totalMeetings": 21
    }
  ],
  "pageable": {
    "sort": {
      "sorted": false,
      "unsorted": true,
      "empty": true
    },
    "offset": 2,
    "pageNumber": 2,
    "pageSize": 1,
    "paged": true,
    "unpaged": false
  },
  "totalPages": 2,
  "totalElements": 10,
  "last": false,
  "size": 5,
  "number": 2,
  "sort": {
    "sorted": false,
    "unsorted": true,
    "empty": true
  },
  "numberOfElements": 1,
  "first": false,
  "empty": false
}
