{
  "calendarEvents": [
    {
      "eventStartDate": "2010-02-01T09:00:00",
      "eventLengthSeconds": 900,
      "title": "Daily Standup",
      "numAttendees": 5
    },
    {
      "eventStartDate": "2010-02-01T14:00:00",
      "eventLengthSeconds": 7200,
      "title": "Marketing Meeting",
      "numAttendees": 12
    },
    {
      "eventStartDate": "2010-02-01T17:00:00",
      "eventLengthSeconds": 3600,
      "title": "Company Social",
      "numAttendees": 25
    },
    {
      "eventStartDate": "2010-02-02T09:00:00",
      "eventLengthSeconds": 900,
      "title": "Daily Standup",
      "numAttendees": 5
    },
    {
      "eventStartDate": "2010-02-02T12:00:00",
      "eventLengthSeconds": 3600,
      "title": "Lunch",
      "numAttendees": 8
    },
    {
      "eventStartDate": "2010-02-02T14:00:00",
      "eventLengthSeconds": 3600,
      "title": "Afternoon Chat",
      "numAttendees": 8
    },
    {
      "eventStartDate": "2010-02-02T17:00:00",
      "eventLengthSeconds": 3600,
      "title": "Social Hour!",
      "numAttendees": 18
    }
  ],
  "pageable": {
    "sort": {
      "sorted": false,
      "unsorted": true,
      "empty": true
    },
    "offset": 2,
    "pageNumber": 2,
    "pageSize": 1,
    "paged": true,
    "unpaged": false
  },
  "totalPages": 2,
  "totalElements": 78,
  "last": false,
  "size": 5,
  "number": 2,
  "sort": {
    "sorted": false,
    "unsorted": true,
    "empty": true
  },
  "numberOfElements": 25,
  "first": false,
  "empty": false
}
